0.1 0.0323129
0.3 0.0217093
0.5 0.0228146
0.7 0.0238215
0.9 0.0249278
1.1 0.0265141
1.3 0.028257
1.5 0.0278511
1.7 0.0293754
1.9 0.0317513
2.1 0.0334979
2.3 0.0348368
2.5 0.0358355
2.7 0.0377734
2.9 0.0392887
3.1 0.0402202
3.3 0.04262
3.5 0.0430644
3.7 0.0474289
3.9 0.049121
4.1 0.0503712
4.3 0.0531023
4.5 0.0544725
4.7 0.0590062
4.9 0.0612113
5.1 0.063887
5.3 0.0663871
5.5 0.0715901
5.7 0.0697504
5.9 0.0743349
6.1 0.0780608
6.3 0.0826806
6.5 0.0825369
6.7 0.0839965
6.9 0.0913462
7.1 0.0966429
7.3 0.100849
7.5 0.0997899
7.7 0.102925
7.9 0.112161
8.1 0.115995
8.3 0.12533
8.5 0.128205
8.7 0.129252
8.9 0.134181
9.1 0.145706
9.3 0.159129
9.5 0.16844
9.7 0.178908
9.9 0.188492
10.1 0.188492
10.3 0.195876
10.5 0.234568
10.7 0.255376
10.9 0.260989
11.1 0.259563
11.3 0.263158
11.5 0.276163
11.7 0.302548
11.9 0.270655
12.1 0.38
12.3 0.36965
12.5 0.359848
12.7 0.36965
12.9 0.39749
13.1 0.418502
13.3 0.477387
13.5 0.508021
13.7 0.492228
13.9 0.58642
14.1 0.582822
14.3 0.659722
14.5 0.693431
14.7 0.714286
14.9 1
15.1 0.940594
15.3 1.03261
15.5 1.01064
15.7 0.969388
15.9 1.39706
16.1 1.46154
16.3 1.82692
16.5 1.50794
16.7 1.72727
16.9 1.48438
17.1 2.2093
17.3 2.87879
17.5 2.2619
17.7 3.06452
17.9 4.13043
18.1 3.39286
18.3 4.13043
18.5 3.95833
18.7 5.27778
18.9 8.63636
19.1 8.63636
19.3 11.875
19.5 15.8333
19.7 19
19.9 13.5714
